module gitlab.com/abhishp/stats-api

go 1.19

require (
	github.com/brianvoe/gofakeit/v6 v6.19.0
	github.com/gofrs/uuid v4.3.1+incompatible
	github.com/golang-jwt/jwt/v4 v4.4.3
	github.com/gorilla/mux v1.8.0
	github.com/mitchellh/mapstructure v1.5.0
	github.com/pkg/errors v0.9.1
	github.com/samber/lo v1.36.0
	github.com/spf13/viper v1.14.0
	github.com/stretchr/testify v1.8.1
	github.com/urfave/cli/v2 v2.23.5
	github.com/urfave/negroni v1.0.0
	golang.org/x/crypto v0.3.0
	gopkg.in/validator.v2 v2.0.1
	gopkg.in/yaml.v3 v3.0.1
)

require (
	github.com/cpuguy83/go-md2man/v2 v2.0.2 // indirect
	github.com/davecgh/go-spew v1.1.1 // indirect
	github.com/fsnotify/fsnotify v1.6.0 // indirect
	github.com/hashicorp/hcl v1.0.0 // indirect
	github.com/magiconair/properties v1.8.6 // indirect
	github.com/pelletier/go-toml v1.9.5 // indirect
	github.com/pelletier/go-toml/v2 v2.0.5 // indirect
	github.com/pmezard/go-difflib v1.0.0 // indirect
	github.com/rogpeppe/go-internal v1.8.0 // indirect
	github.com/russross/blackfriday/v2 v2.1.0 // indirect
	github.com/spf13/afero v1.9.2 // indirect
	github.com/spf13/cast v1.5.0 // indirect
	github.com/spf13/jwalterweatherman v1.1.0 // indirect
	github.com/spf13/pflag v1.0.5 // indirect
	github.com/stretchr/objx v0.5.0 // indirect
	github.com/subosito/gotenv v1.4.1 // indirect
	github.com/xrash/smetrics v0.0.0-20201216005158-039620a65673 // indirect
	golang.org/x/exp v0.0.0-20220303212507-bbda1eaf7a17 // indirect
	golang.org/x/sys v0.2.0 // indirect
	golang.org/x/text v0.4.0 // indirect
	gopkg.in/ini.v1 v1.67.0 // indirect
	gopkg.in/yaml.v2 v2.4.0 // indirect
)

replace github.com/kelseyhightower/envconfig v1.4.0 => github.com/abhishp/envconfig v1.4.1
